<svg width="18" height="18" viewBox="0 0 18 18" fill="none" xmlns="http://www.w3.org/2000/svg">
<path fill-rule="evenodd" clip-rule="evenodd" d="M2.25 9C2.25 8.172 2.922 7.5 3.75 7.5C4.578 7.5 5.25 8.172 5.25 9C5.25 9.828 4.578 10.5 3.75 10.5C2.922 10.5 2.25 9.828 2.25 9ZM9 7.5C8.172 7.5 7.5 8.172 7.5 9C7.5 9.828 8.172 10.5 9 10.5C9.828 10.5 10.5 9.828 10.5 9C10.5 8.172 9.828 7.5 9 7.5ZM14.25 7.5C13.422 7.5 12.75 8.172 12.75 9C12.75 9.828 13.422 10.5 14.25 10.5C15.078 10.5 15.75 9.828 15.75 9C15.75 8.172 15.078 7.5 14.25 7.5Z" fill="#00A6ED"/>
</svg>
